<svg width="32" height="32" viewBox="0 0 32 32" fill="none" xmlns="http://www.w3.org/2000/svg">
<path fill-rule="evenodd" clip-rule="evenodd" d="M16.5161 7.22583C15.946 7.22583 15.4839 7.68799 15.4839 8.25809V14.4516H9.29031C8.72021 14.4516 8.25806 14.9138 8.25806 15.4839C8.25806 16.054 8.72021 16.5161 9.29031 16.5161H15.4839V22.7097C15.4839 23.2798 15.946 23.742 16.5161 23.742C17.0862 23.742 17.5484 23.2798 17.5484 22.7097V16.5161H23.7419C24.312 16.5161 24.7742 16.054 24.7742 15.4839C24.7742 14.9138 24.312 14.4516 23.7419 14.4516H17.5484V8.25809C17.5484 7.68799 17.0862 7.22583 16.5161 7.22583Z" fill="#2F80ED"/>
</svg>
