<svg width="32" height="32" viewBox="0 0 32 32" fill="none" xmlns="http://www.w3.org/2000/svg">
<mask id="path-1-inside-1" fill="white">
<path fill-rule="evenodd" clip-rule="evenodd" d="M24 7.0025C24 6.44965 23.5504 6.00225 22.9975 6.00501L8.95759 6.07521C8.42795 6.07786 8 6.50796 8 7.0376C8 7.56912 8.43088 8 8.9624 8L23.0025 8C23.5534 8 24 7.5534 24 7.0025ZM12.2284 9C9.93205 9 8.10717 10.9291 8.23455 13.2219L8.7901 23.2219C8.90786 25.3415 10.661 27 12.7839 27L19.2161 27C21.339 27 23.0921 25.3415 23.2099 23.2219L23.7655 13.2219C23.8928 10.9291 22.068 9 19.7716 9L12.2284 9Z"/>
</mask>
<path d="M22.9975 6.00501L22.9875 4.00504L22.9875 4.00504L22.9975 6.00501ZM8.95759 6.07521L8.96759 8.07519L8.96759 8.07519L8.95759 6.07521ZM8.9624 8L8.9624 10L8.9624 8ZM23.0025 8L23.0025 6L23.0025 8ZM8.23455 13.2219L6.23763 13.3328L8.23455 13.2219ZM8.7901 23.2219L10.787 23.1109L10.787 23.1109L8.7901 23.2219ZM23.2099 23.2219L25.2068 23.3328L23.2099 23.2219ZM23.7655 13.2219L25.7624 13.3328L23.7655 13.2219ZM22.9875 4.00504C24.6488 3.99673 26 5.34117 26 7.0025L22 7.0025C22 7.55813 22.4519 8.00776 23.0075 8.00499L22.9875 4.00504ZM8.94759 4.07524L22.9875 4.00504L23.0075 8.00499L8.96759 8.07519L8.94759 4.07524ZM6 7.0376C6 5.40729 7.3173 4.08339 8.94759 4.07524L8.96759 8.07519C9.53861 8.07233 10 7.60863 10 7.0376L6 7.0376ZM8.9624 10C7.32631 10 6 8.67369 6 7.0376L10 7.0376C10 6.46455 9.53545 6 8.9624 6L8.9624 10ZM23.0025 10L8.9624 10L8.9624 6L23.0025 6L23.0025 10ZM26 7.0025C26 8.65797 24.658 10 23.0025 10L23.0025 6C22.4488 6 22 6.44883 22 7.0025L26 7.0025ZM6.23763 13.3328C6.04656 9.89361 8.78388 7 12.2284 7L12.2284 11C11.0802 11 10.1678 11.9645 10.2315 13.1109L6.23763 13.3328ZM6.79318 23.3328L6.23763 13.3328L10.2315 13.1109L10.787 23.1109L6.79318 23.3328ZM12.7839 29C9.59954 29 6.96982 26.5123 6.79318 23.3328L10.787 23.1109C10.8459 24.1708 11.7225 25 12.7839 25L12.7839 29ZM19.2161 29L12.7839 29L12.7839 25L19.2161 25L19.2161 29ZM25.2068 23.3328C25.0302 26.5123 22.4005 29 19.2161 29L19.2161 25C20.2775 25 21.1541 24.1708 21.213 23.1109L25.2068 23.3328ZM25.7624 13.3328L25.2068 23.3328L21.213 23.1109L21.7685 13.1109L25.7624 13.3328ZM19.7716 7C23.2161 7 25.9534 9.89361 25.7624 13.3328L21.7685 13.1109C21.8322 11.9645 20.9198 11 19.7716 11L19.7716 7ZM12.2284 7L19.7716 7L19.7716 11L12.2284 11L12.2284 7Z" fill="#838383" mask="url(#path-1-inside-1)"/>
<mask id="path-3-inside-2" fill="white">
<path fill-rule="evenodd" clip-rule="evenodd" d="M18.005 14C17.4516 14 17.0045 14.4516 17.01 15.005L17.0704 21.0448C17.0757 21.5739 17.5061 22 18.0352 22C18.568 22 19 21.568 19 21.0352L19 14.995C19 14.4455 18.5545 14 18.005 14ZM14.005 14C13.4516 14 13.0045 14.4516 13.01 15.005L13.0704 21.0448C13.0757 21.5739 13.5061 22 14.0352 22C14.568 22 15 21.568 15 21.0352L15 14.995C15 14.4455 14.5545 14 14.005 14Z"/>
</mask>
<path fill-rule="evenodd" clip-rule="evenodd" d="M18.005 14C17.4516 14 17.0045 14.4516 17.01 15.005L17.0704 21.0448C17.0757 21.5739 17.5061 22 18.0352 22C18.568 22 19 21.568 19 21.0352L19 14.995C19 14.4455 18.5545 14 18.005 14ZM14.005 14C13.4516 14 13.0045 14.4516 13.01 15.005L13.0704 21.0448C13.0757 21.5739 13.5061 22 14.0352 22C14.568 22 15 21.568 15 21.0352L15 14.995C15 14.4455 14.5545 14 14.005 14Z" fill="#E6E6E6"/>
<path d="M17.01 15.005L15.0101 15.0249L17.01 15.005ZM17.0704 21.0448L15.0705 21.0648L15.0705 21.0648L17.0704 21.0448ZM13.01 15.005L11.0101 15.0249L11.0101 15.0249L13.01 15.005ZM13.0704 21.0448L15.0703 21.0248L15.0703 21.0248L13.0704 21.0448ZM15.0101 15.0249C14.9935 13.3592 16.3392 12 18.005 12L18.005 16C18.564 16 19.0155 15.5439 19.0099 14.985L15.0101 15.0249ZM15.0705 21.0648L15.0101 15.0249L19.0099 14.985L19.0703 21.0248L15.0705 21.0648ZM18.0352 24C16.4094 24 15.0868 22.6906 15.0705 21.0648L19.0703 21.0248C19.0647 20.4572 18.6029 20 18.0352 20L18.0352 24ZM21 21.0352C21 22.6726 19.6726 24 18.0352 24L18.0352 20C17.4635 20 17 20.4635 17 21.0352L21 21.0352ZM21 14.995L21 21.0352L17 21.0352L17 14.995L21 14.995ZM18.005 12C19.6591 12 21 13.3409 21 14.995L17 14.995C17 15.55 17.45 16 18.005 16L18.005 12ZM11.0101 15.0249C10.9935 13.3592 12.3392 12 14.005 12L14.005 16C14.564 16 15.0155 15.5439 15.0099 14.985L11.0101 15.0249ZM11.0705 21.0648L11.0101 15.0249L15.0099 14.985L15.0703 21.0248L11.0705 21.0648ZM14.0352 24C12.4094 24 11.0868 22.6906 11.0705 21.0648L15.0703 21.0248C15.0647 20.4572 14.6029 20 14.0352 20L14.0352 24ZM17 21.0352C17 22.6726 15.6726 24 14.0352 24L14.0352 20C13.4635 20 13 20.4635 13 21.0352L17 21.0352ZM17 14.995L17 21.0352L13 21.0352L13 14.995L17 14.995ZM14.005 12C15.6591 12 17 13.3409 17 14.995L13 14.995C13 15.55 13.45 16 14.005 16L14.005 12Z" fill="#838383" mask="url(#path-3-inside-2)"/>
</svg>
